{
	"FixedFileInfo":
	{
		"FileVersion": {
			"Major": 2,
			"Minor": 13,
			"Patch": 3,
			"Build": 0
		}
	},
	"StringFileInfo":
	{
		"FileDescription": "Git LFS",
		"LegalCopyright": "GitHub, Inc. and Git LFS contributors",
		"ProductName": "Git Large File Storage (LFS)",
		"ProductVersion": "2.13.3"
	},
	"IconPath": "script/windows-installer/git-lfs-logo.ico"
}
